{
  "id": 7,
  "title": "Server-249",
  "tags": [],
  "style": "dark",
  "timezone": "browser",
  "editable": true,
  "hideControls": false,
  "sharedCrosshair": false,
  "rows": [
    {
      "collapse": false,
      "editable": true,
      "height": "250px",
      "panels": [
        {
          "cacheTimeout": null,
          "colorBackground": false,
          "colorValue": false,
          "colors": [
            "rgba(245, 54, 54, 0.9)",
            "rgba(237, 129, 40, 0.89)",
            "rgba(50, 172, 45, 0.97)"
          ],
          "datasource": "249",
          "editable": true,
          "error": false,
          "format": "none",
          "gauge": {
            "maxValue": 100,
            "minValue": 0,
            "show": false,
            "thresholdLabels": false,
            "thresholdMarkers": true
          },
          "id": 5,
          "interval": null,
          "links": [],
          "mappingType": 1,
          "mappingTypes": [
            {
              "name": "value to text",
              "value": 1
            },
            {
              "name": "range to text",
              "value": 2
            }
          ],
          "maxDataPoints": 100,
          "nullPointMode": "connected",
          "nullText": null,
          "postfix": "",
          "postfixFontSize": "50%",
          "prefix": "",
          "prefixFontSize": "50%",
          "rangeMaps": [
            {
              "from": "null",
              "text": "N/A",
              "to": "null"
            }
          ],
          "span": 1,
          "sparkline": {
            "fillColor": "rgba(31, 118, 189, 0.18)",
            "full": false,
            "lineColor": "rgb(31, 120, 193)",
            "show": false
          },
          "targets": [
            {
              "column": "cpucore",
              "dsType": "influxdb",
              "fields": [
                {
                  "func": "mean",
                  "name": "cpucore"
                }
              ],
              "function": "mean",
              "groupBy": [
                {
                  "interval": "auto",
                  "params": [
                    "auto"
                  ],
                  "type": "time"
                }
              ],
              "measurement": "load",
              "policy": "default",
              "query": "SELECT mean(\"cpucore\") FROM \"load\" WHERE $timeFilter GROUP BY time($interval)",
              "refId": "A",
              "resultFormat": "time_series",
              "select": [
                [
                  {
                    "params": [
                      "cpucore"
                    ],
                    "type": "field"
                  },
                  {
                    "params": [],
                    "type": "mean"
                  }
                ]
              ],
              "series": "load",
              "tags": []
            }
          ],
          "thresholds": "",
          "title": "Core",
          "type": "singlestat",
          "valueFontSize": "80%",
          "valueMaps": [
            {
              "op": "=",
              "text": "N/A",
              "value": "null"
            }
          ],
          "valueName": "avg"
        },
        {
          "aliasColors": {},
          "aliasYAxis": {},
          "annotate": {
            "enable": false
          },
          "bars": false,
          "datasource": "249",
          "fill": 1,
          "grid": {
            "max": null,
            "min": null,
            "threshold1": null,
            "threshold1Color": "rgba(216, 200, 27, 0.27)",
            "threshold2": null,
            "threshold2Color": "rgba(234, 112, 112, 0.22)",
            "thresholdLine": false
          },
          "id": 4,
          "interactive": true,
          "legend": {
            "alignAsTable": false,
            "avg": false,
            "current": false,
            "max": false,
            "min": false,
            "rightSide": false,
            "show": true,
            "total": false,
            "values": false
          },
          "legend_counts": true,
          "lines": true,
          "linewidth": 2,
          "links": [],
          "nullPointMode": "connected",
          "options": false,
          "percentage": false,
          "pointradius": 5,
          "points": false,
          "renderer": "flot",
          "resolution": 100,
          "scale": 1,
          "seriesOverrides": [],
          "span": 10,
          "spyable": true,
          "stack": false,
          "steppedLine": false,
          "targets": [
            {
              "alias": "1min",
              "column": "min1",
              "dsType": "influxdb",
              "fields": [
                {
                  "func": "mean",
                  "name": "min1"
                }
              ],
              "fill": "null",
              "function": "mean",
              "groupBy": [
                {
                  "interval": "auto",
                  "params": [
                    "auto"
                  ],
                  "type": "time"
                }
              ],
              "measurement": "load",
              "policy": "default",
              "query": "SELECT mean(\"min1\") FROM \"load\" WHERE $timeFilter GROUP BY time($interval) fill(null)",
              "refId": "A",
              "resultFormat": "time_series",
              "select": [
                [
                  {
                    "params": [
                      "min1"
                    ],
                    "type": "field"
                  },
                  {
                    "params": [],
                    "type": "mean"
                  }
                ]
              ],
              "series": "load",
              "tags": [],
              "target": "randomWalk('random walk')"
            },
            {
              "alias": "5mins",
              "column": "min5",
              "dsType": "influxdb",
              "fields": [
                {
                  "func": "mean",
                  "name": "min5"
                }
              ],
              "fill": "null",
              "function": "mean",
              "groupBy": [
                {
                  "interval": "auto",
                  "params": [
                    "auto"
                  ],
                  "type": "time"
                }
              ],
              "measurement": "load",
              "policy": "default",
              "query": "SELECT mean(\"min5\") FROM \"load\" WHERE $timeFilter GROUP BY time($interval) fill(null)",
              "refId": "B",
              "resultFormat": "time_series",
              "select": [
                [
                  {
                    "params": [
                      "min5"
                    ],
                    "type": "field"
                  },
                  {
                    "params": [],
                    "type": "mean"
                  }
                ]
              ],
              "series": "load",
              "tags": [],
              "target": ""
            },
            {
              "alias": "15mins",
              "column": "min15",
              "dsType": "influxdb",
              "fields": [
                {
                  "func": "mean",
                  "name": "min15"
                }
              ],
              "fill": "null",
              "function": "mean",
              "groupBy": [
                {
                  "interval": "auto",
                  "params": [
                    "auto"
                  ],
                  "type": "time"
                }
              ],
              "measurement": "load",
              "policy": "default",
              "query": "SELECT mean(\"min15\") FROM \"load\" WHERE $timeFilter GROUP BY time($interval) fill(null)",
              "refId": "C",
              "resultFormat": "time_series",
              "select": [
                [
                  {
                    "params": [
                      "min15"
                    ],
                    "type": "field"
                  },
                  {
                    "params": [],
                    "type": "mean"
                  }
                ]
              ],
              "series": "load",
              "tags": [],
              "target": ""
            }
          ],
          "timeFrom": null,
          "timeShift": null,
          "timezone": "browser",
          "title": "Load",
          "tooltip": {
            "msResolution": true,
            "query_as_alias": true,
            "shared": false,
            "sort": 0,
            "value_type": "cumulative"
          },
          "type": "graph",
          "xaxis": {
            "show": true
          },
          "yaxes": [
            {
              "format": "short",
              "logBase": 1,
              "max": null,
              "min": null,
              "show": true
            },
            {
              "format": "short",
              "logBase": 1,
              "max": null,
              "min": null,
              "show": true
            }
          ]
        },
        {
          "cacheTimeout": null,
          "colorBackground": false,
          "colorValue": false,
          "colors": [
            "rgba(50, 172, 45, 0.97)",
            "rgba(237, 129, 40, 0.89)",
            "rgba(245, 54, 54, 0.9)"
          ],
          "datasource": "249",
          "editable": true,
          "error": false,
          "format": "none",
          "gauge": {
            "maxValue": 100,
            "minValue": 0,
            "show": false,
            "thresholdLabels": false,
            "thresholdMarkers": true
          },
          "id": 18,
          "interval": null,
          "links": [],
          "mappingType": 1,
          "mappingTypes": [
            {
              "name": "value to text",
              "value": 1
            },
            {
              "name": "range to text",
              "value": 2
            }
          ],
          "maxDataPoints": 100,
          "nullPointMode": "connected",
          "nullText": null,
          "postfix": "",
          "postfixFontSize": "50%",
          "prefix": "",
          "prefixFontSize": "50%",
          "rangeMaps": [
            {
              "from": "null",
              "text": "N/A",
              "to": "null"
            }
          ],
          "span": 1,
          "sparkline": {
            "fillColor": "rgba(31, 118, 189, 0.18)",
            "full": false,
            "lineColor": "rgb(31, 120, 193)",
            "show": true
          },
          "targets": [
            {
              "column": "total",
              "dsType": "influxdb",
              "fields": [
                {
                  "func": "mean",
                  "name": "total"
                }
              ],
              "function": "mean",
              "groupBy": [
                {
                  "interval": "auto",
                  "params": [
                    "auto"
                  ],
                  "type": "time"
                }
              ],
              "measurement": "processcount",
              "policy": "default",
              "query": "SELECT mean(\"total\") FROM \"processcount\" WHERE $timeFilter GROUP BY time($interval)",
              "refId": "A",
              "resultFormat": "time_series",
              "select": [
                [
                  {
                    "params": [
                      "total"
                    ],
                    "type": "field"
                  },
                  {
                    "params": [],
                    "type": "mean"
                  }
                ]
              ],
              "series": "processcount",
              "tags": []
            }
          ],
          "thresholds": "",
          "title": "Processes",
          "type": "singlestat",
          "valueFontSize": "80%",
          "valueMaps": [
            {
              "op": "=",
              "text": "N/A",
              "value": "null"
            }
          ],
          "valueName": "avg"
        }
      ],
      "title": "test"
    },
    {
      "collapse": false,
      "editable": true,
      "height": "250px",
      "panels": [
        {
          "aliasColors": {},
          "bars": false,
          "datasource": "249",
          "editable": true,
          "error": false,
          "fill": 1,
          "grid": {
            "threshold1": null,
            "threshold1Color": "rgba(216, 200, 27, 0.27)",
            "threshold2": null,
            "threshold2Color": "rgba(234, 112, 112, 0.22)"
          },
          "id": 6,
          "legend": {
            "avg": true,
            "current": false,
            "max": true,
            "min": true,
            "rightSide": false,
            "show": true,
            "total": false,
            "values": false
          },
          "lines": true,
          "linewidth": 2,
          "links": [],
          "nullPointMode": "connected",
          "percentage": false,
          "pointradius": 5,
          "points": false,
          "renderer": "flot",
          "seriesOverrides": [],
          "span": 6,
          "stack": false,
          "steppedLine": false,
          "targets": [
            {
              "alias": "User",
              "column": "user",
              "dsType": "influxdb",
              "fields": [
                {
                  "func": "mean",
                  "name": "user"
                }
              ],
              "fill": "null",
              "function": "mean",
              "groupBy": [
                {
                  "interval": "auto",
                  "params": [
                    "auto"
                  ],
                  "type": "time"
                }
              ],
              "measurement": "cpu",
              "policy": "default",
              "query": "SELECT mean(\"user\") FROM \"cpu\" WHERE $timeFilter GROUP BY time($interval) fill(null)",
              "refId": "A",
              "resultFormat": "time_series",
              "select": [
                [
                  {
                    "params": [
                      "user"
                    ],
                    "type": "field"
                  },
                  {
                    "params": [],
                    "type": "mean"
                  }
                ]
              ],
              "series": "cpu",
              "tags": []
            },
            {
              "alias": "System",
              "column": "system",
              "dsType": "influxdb",
              "fields": [
                {
                  "func": "mean",
                  "name": "system"
                }
              ],
              "fill": "null",
              "function": "mean",
              "groupBy": [
                {
                  "interval": "auto",
                  "params": [
                    "auto"
                  ],
                  "type": "time"
                }
              ],
              "measurement": "cpu",
              "policy": "default",
              "query": "SELECT mean(\"system\") FROM \"cpu\" WHERE $timeFilter GROUP BY time($interval) fill(null)",
              "refId": "B",
              "resultFormat": "time_series",
              "select": [
                [
                  {
                    "params": [
                      "system"
                    ],
                    "type": "field"
                  },
                  {
                    "params": [],
                    "type": "mean"
                  }
                ]
              ],
              "series": "cpu",
              "tags": [],
              "target": ""
            },
            {
              "alias": "IoWait",
              "column": "iowait",
              "dsType": "influxdb",
              "fields": [
                {
                  "func": "mean",
                  "name": "iowait"
                }
              ],
              "fill": "null",
              "function": "mean",
              "groupBy": [
                {
                  "interval": "auto",
                  "params": [
                    "auto"
                  ],
                  "type": "time"
                }
              ],
              "measurement": "cpu",
              "policy": "default",
              "query": "SELECT mean(\"iowait\") FROM \"cpu\" WHERE $timeFilter GROUP BY time($interval) fill(null)",
              "refId": "C",
              "resultFormat": "time_series",
              "select": [
                [
                  {
                    "params": [
                      "iowait"
                    ],
                    "type": "field"
                  },
                  {
                    "params": [],
                    "type": "mean"
                  }
                ]
              ],
              "series": "cpu",
              "tags": [],
              "target": ""
            }
          ],
          "timeFrom": null,
          "timeShift": null,
          "title": "CPU (%)",
          "tooltip": {
            "msResolution": true,
            "shared": false,
            "sort": 0,
            "value_type": "cumulative"
          },
          "type": "graph",
          "xaxis": {
            "show": true
          },
          "yaxes": [
            {
              "format": "percent",
              "logBase": 1,
              "max": null,
              "min": null,
              "show": true
            },
            {
              "format": "short",
              "logBase": 1,
              "max": null,
              "min": null,
              "show": true
            }
          ]
        },
        {
          "aliasColors": {},
          "bars": false,
          "datasource": "249",
          "editable": true,
          "error": false,
          "fill": 0,
          "grid": {
            "threshold1": null,
            "threshold1Color": "rgba(216, 200, 27, 0.27)",
            "threshold2": null,
            "threshold2Color": "rgba(234, 112, 112, 0.22)"
          },
          "id": 7,
          "legend": {
            "avg": false,
            "current": false,
            "max": false,
            "min": false,
            "show": true,
            "total": false,
            "values": false
          },
          "lines": true,
          "linewidth": 1,
          "links": [],
          "nullPointMode": "connected",
          "percentage": false,
          "pointradius": 5,
          "points": false,
          "renderer": "flot",
          "seriesOverrides": [],
          "span": 6,
          "stack": false,
          "steppedLine": false,
          "targets": [
            {
              "alias": "Used",
              "column": "used",
              "dsType": "influxdb",
              "fields": [
                {
                  "func": "mean",
                  "name": "used"
                }
              ],
              "function": "mean",
              "groupBy": [
                {
                  "interval": "auto",
                  "params": [
                    "auto"
                  ],
                  "type": "time"
                }
              ],
              "measurement": "mem",
              "policy": "default",
              "query": "SELECT mean(\"used\") FROM \"mem\" WHERE $timeFilter GROUP BY time($interval)",
              "refId": "A",
              "resultFormat": "time_series",
              "select": [
                [
                  {
                    "params": [
                      "used"
                    ],
                    "type": "field"
                  },
                  {
                    "params": [],
                    "type": "mean"
                  }
                ]
              ],
              "series": "mem",
              "tags": []
            },
            {
              "alias": "Max",
              "column": "total",
              "dsType": "influxdb",
              "fields": [
                {
                  "func": "mean",
                  "name": "total"
                }
              ],
              "function": "mean",
              "groupBy": [
                {
                  "interval": "auto",
                  "params": [
                    "auto"
                  ],
                  "type": "time"
                }
              ],
              "measurement": "mem",
              "policy": "default",
              "query": "SELECT mean(\"total\") FROM \"mem\" WHERE $timeFilter GROUP BY time($interval)",
              "refId": "B",
              "resultFormat": "time_series",
              "select": [
                [
                  {
                    "params": [
                      "total"
                    ],
                    "type": "field"
                  },
                  {
                    "params": [],
                    "type": "mean"
                  }
                ]
              ],
              "series": "mem",
              "tags": [],
              "target": ""
            }
          ],
          "timeFrom": null,
          "timeShift": null,
          "title": "MEM",
          "tooltip": {
            "msResolution": true,
            "shared": false,
            "sort": 0,
            "value_type": "cumulative"
          },
          "type": "graph",
          "xaxis": {
            "show": true
          },
          "yaxes": [
            {
              "format": "bytes",
              "logBase": 1,
              "max": null,
              "min": null,
              "show": true
            },
            {
              "format": "short",
              "logBase": 1,
              "max": null,
              "min": null,
              "show": true
            }
          ]
        }
      ],
      "title": "New row"
    },
    {
      "collapse": false,
      "editable": true,
      "height": "250px",
      "panels": [
        {
          "aliasColors": {},
          "bars": false,
          "datasource": "249",
          "editable": true,
          "error": false,
          "fill": 1,
          "grid": {
            "threshold1": null,
            "threshold1Color": "rgba(216, 200, 27, 0.27)",
            "threshold2": null,
            "threshold2Color": "rgba(234, 112, 112, 0.22)"
          },
          "id": 9,
          "legend": {
            "avg": true,
            "current": false,
            "max": true,
            "min": true,
            "show": true,
            "total": false,
            "values": true
          },
          "lines": true,
          "linewidth": 2,
          "links": [],
          "nullPointMode": "connected",
          "percentage": false,
          "pointradius": 5,
          "points": false,
          "renderer": "flot",
          "seriesOverrides": [],
          "span": 6,
          "stack": false,
          "steppedLine": false,
          "targets": [
            {
              "alias": "Rx",
              "column": "enp0s25.rx",
              "dsType": "influxdb",
              "fields": [
                {
                  "func": "mean",
                  "name": "wlan0.rx"
                }
              ],
              "fill": "null",
              "function": "mean",
              "groupBy": [
                {
                  "interval": "auto",
                  "params": [
                    "auto"
                  ],
                  "type": "time"
                }
              ],
              "interval": "",
              "measurement": "network",
              "policy": "default",
              "query": "SELECT mean(\"eth0.rx\")/mean(\"eth0.time_since_update\")*8 FROM \"network\" WHERE $timeFilter GROUP BY time($interval) fill(null)",
              "refId": "A",
              "resultFormat": "time_series",
              "select": [
                [
                  {
                    "params": [
                      "enp2s0.rx"
                    ],
                    "type": "field"
                  },
                  {
                    "params": [],
                    "type": "mean"
                  }
                ]
              ],
              "series": "network",
              "tags": []
            },
            {
              "alias": "Tx",
              "column": "eth0.tx*-1",
              "dsType": "influxdb",
              "fields": [
                {
                  "func": "mean",
                  "name": "eth0.tx"
                }
              ],
              "fill": "null",
              "function": "mean",
              "groupBy": [
                {
                  "interval": "auto",
                  "params": [
                    "auto"
                  ],
                  "type": "time"
                }
              ],
              "measurement": "network",
              "policy": "default",
              "query": "SELECT mean(\"eth0.tx\")/mean(\"eth0.time_since_update\")*8 FROM \"network\" WHERE $timeFilter GROUP BY time($interval) fill(null)",
              "refId": "B",
              "resultFormat": "time_series",
              "select": [
                [
                  {
                    "params": [
                      "enp2s0.tx"
                    ],
                    "type": "field"
                  },
                  {
                    "params": [],
                    "type": "mean"
                  }
                ]
              ],
              "series": "network",
              "tags": [],
              "target": ""
            }
          ],
          "timeFrom": null,
          "timeShift": null,
          "title": "Net (enp2s)",
          "tooltip": {
            "msResolution": true,
            "shared": false,
            "sort": 0,
            "value_type": "cumulative"
          },
          "transparent": false,
          "type": "graph",
          "xaxis": {
            "show": true
          },
          "yaxes": [
            {
              "format": "bps",
              "logBase": 1,
              "max": null,
              "min": null,
              "show": true
            },
            {
              "format": "short",
              "logBase": 1,
              "max": null,
              "min": null,
              "show": true
            }
          ]
        },
        {
          "aliasColors": {},
          "bars": false,
          "datasource": "249",
          "editable": true,
          "error": false,
          "fill": 1,
          "grid": {
            "threshold1": null,
            "threshold1Color": "rgba(216, 200, 27, 0.27)",
            "threshold2": null,
            "threshold2Color": "rgba(234, 112, 112, 0.22)"
          },
          "id": 20,
          "legend": {
            "alignAsTable": false,
            "avg": true,
            "current": false,
            "hideEmpty": false,
            "hideZero": false,
            "max": true,
            "min": true,
            "rightSide": false,
            "show": true,
            "total": false,
            "values": true
          },
          "lines": true,
          "linewidth": 2,
          "links": [],
          "nullPointMode": "connected",
          "percentage": false,
          "pointradius": 5,
          "points": false,
          "renderer": "flot",
          "seriesOverrides": [],
          "span": 6,
          "stack": false,
          "steppedLine": false,
          "targets": [
            {
              "alias": "Rx",
              "column": "enp0s25.rx",
              "dsType": "influxdb",
              "fields": [
                {
                  "func": "mean",
                  "name": "wlan0.rx"
                }
              ],
              "fill": "null",
              "function": "mean",
              "groupBy": [
                {
                  "interval": "auto",
                  "params": [
                    "auto"
                  ],
                  "type": "time"
                }
              ],
              "hide": false,
              "interval": "",
              "measurement": "network",
              "policy": "default",
              "query": "SELECT mean(\"eth0.rx\")/mean(\"eth0.time_since_update\")*8 FROM \"network\" WHERE $timeFilter GROUP BY time($interval) fill(null)",
              "refId": "A",
              "resultFormat": "time_series",
              "select": [
                [
                  {
                    "params": [
                      "lo.rx"
                    ],
                    "type": "field"
                  },
                  {
                    "params": [],
                    "type": "mean"
                  }
                ]
              ],
              "series": "network",
              "tags": []
            },
            {
              "alias": "Tx",
              "column": "eth0.tx*-1",
              "dsType": "influxdb",
              "fields": [
                {
                  "func": "mean",
                  "name": "eth0.tx"
                }
              ],
              "fill": "null",
              "function": "mean",
              "groupBy": [
                {
                  "interval": "auto",
                  "params": [
                    "auto"
                  ],
                  "type": "time"
                }
              ],
              "measurement": "network",
              "policy": "default",
              "query": "SELECT mean(\"eth0.tx\")/mean(\"eth0.time_since_update\")*8 FROM \"network\" WHERE $timeFilter GROUP BY time($interval) fill(null)",
              "refId": "B",
              "resultFormat": "time_series",
              "select": [
                [
                  {
                    "params": [
                      "lo.tx"
                    ],
                    "type": "field"
                  },
                  {
                    "params": [],
                    "type": "mean"
                  }
                ]
              ],
              "series": "network",
              "tags": [],
              "target": ""
            }
          ],
          "timeFrom": null,
          "timeShift": null,
          "title": "Net (lo)",
          "tooltip": {
            "msResolution": true,
            "shared": false,
            "sort": 0,
            "value_type": "cumulative"
          },
          "transparent": false,
          "type": "graph",
          "xaxis": {
            "show": true
          },
          "yaxes": [
            {
              "format": "bps",
              "logBase": 1,
              "max": null,
              "min": null,
              "show": true
            },
            {
              "format": "short",
              "logBase": 1,
              "max": null,
              "min": null,
              "show": true
            }
          ]
        }
      ],
      "title": "New row"
    },
    {
      "collapse": false,
      "editable": true,
      "height": "250px",
      "panels": [
        {
          "aliasColors": {},
          "bars": false,
          "datasource": "249",
          "editable": true,
          "error": false,
          "fill": 1,
          "grid": {
            "threshold1": null,
            "threshold1Color": "rgba(216, 200, 27, 0.27)",
            "threshold2": null,
            "threshold2Color": "rgba(234, 112, 112, 0.22)"
          },
          "id": 10,
          "legend": {
            "avg": true,
            "current": false,
            "max": true,
            "min": true,
            "show": true,
            "total": false,
            "values": true
          },
          "lines": true,
          "linewidth": 2,
          "links": [],
          "nullPointMode": "connected",
          "percentage": false,
          "pointradius": 5,
          "points": false,
          "renderer": "flot",
          "seriesOverrides": [],
          "span": 5,
          "stack": false,
          "steppedLine": false,
          "targets": [
            {
              "alias": "Read",
              "column": "sda2.read_bytes",
              "dsType": "influxdb",
              "fields": [
                {
                  "func": "mean",
                  "name": "sda2.read_bytes"
                }
              ],
              "fill": "null",
              "function": "mean",
              "groupBy": [
                {
                  "interval": "auto",
                  "params": [
                    "auto"
                  ],
                  "type": "time"
                }
              ],
              "hide": false,
              "measurement": "diskio",
              "policy": "default",
              "query": "SELECT mean(\"sda2.read_bytes\")/mean(\"sda2.time_since_update\")*8 FROM \"diskio\" WHERE $timeFilter GROUP BY time($interval) fill(null)",
              "refId": "A",
              "resultFormat": "time_series",
              "select": [
                [
                  {
                    "params": [
                      "sda1.read_bytes"
                    ],
                    "type": "field"
                  },
                  {
                    "params": [],
                    "type": "mean"
                  }
                ]
              ],
              "series": "diskio",
              "tags": []
            },
            {
              "alias": "Write",
              "column": "sda2.write_bytes",
              "dsType": "influxdb",
              "fields": [
                {
                  "func": "mean",
                  "name": "sda2.write_bytes"
                }
              ],
              "fill": "null",
              "function": "mean",
              "groupBy": [
                {
                  "interval": "auto",
                  "params": [
                    "auto"
                  ],
                  "type": "time"
                }
              ],
              "measurement": "diskio",
              "policy": "default",
              "query": "SELECT mean(\"sda2.write_bytes\")/mean(\"sda2.time_since_update\")*8 FROM \"diskio\" WHERE $timeFilter GROUP BY time($interval) fill(null)",
              "refId": "B",
              "resultFormat": "time_series",
              "select": [
                [
                  {
                    "params": [
                      "sda1.write_bytes"
                    ],
                    "type": "field"
                  },
                  {
                    "params": [],
                    "type": "mean"
                  }
                ]
              ],
              "series": "diskio",
              "tags": [],
              "target": ""
            }
          ],
          "timeFrom": null,
          "timeShift": null,
          "title": "sda2 disk IO",
          "tooltip": {
            "msResolution": true,
            "shared": false,
            "sort": 0,
            "value_type": "cumulative"
          },
          "type": "graph",
          "xaxis": {
            "show": true
          },
          "yaxes": [
            {
              "format": "bytes",
              "logBase": 1,
              "max": null,
              "min": null,
              "show": true
            },
            {
              "format": "short",
              "logBase": 1,
              "max": null,
              "min": null,
              "show": true
            }
          ]
        },
        {
          "aliasColors": {},
          "bars": false,
          "datasource": "249",
          "editable": true,
          "error": false,
          "fill": 0,
          "grid": {
            "threshold1": null,
            "threshold1Color": "rgba(216, 200, 27, 0.27)",
            "threshold2": null,
            "threshold2Color": "rgba(234, 112, 112, 0.22)"
          },
          "id": 11,
          "legend": {
            "avg": false,
            "current": false,
            "max": false,
            "min": false,
            "show": true,
            "total": false,
            "values": false
          },
          "lines": true,
          "linewidth": 3,
          "links": [],
          "nullPointMode": "connected",
          "percentage": false,
          "pointradius": 5,
          "points": false,
          "renderer": "flot",
          "seriesOverrides": [],
          "span": 4,
          "stack": false,
          "steppedLine": false,
          "targets": [
            {
              "alias": "Used /data",
              "column": "\"/.used\"",
              "dsType": "influxdb",
              "fields": [
                {
                  "func": "mean",
                  "name": "/.used"
                }
              ],
              "fill": "null",
              "function": "mean",
              "groupBy": [
                {
                  "interval": "auto",
                  "params": [
                    "auto"
                  ],
                  "type": "time"
                }
              ],
              "measurement": "fs",
              "policy": "default",
              "query": "SELECT mean(\"/.used\") FROM \"fs\" WHERE $timeFilter GROUP BY time($interval) fill(null)",
              "refId": "A",
              "resultFormat": "time_series",
              "select": [
                [
                  {
                    "params": [
                      "/data.used"
                    ],
                    "type": "field"
                  },
                  {
                    "params": [],
                    "type": "mean"
                  }
                ]
              ],
              "series": "fs",
              "tags": []
            },
            {
              "alias": "Size /data",
              "column": "\"/.size\"",
              "dsType": "influxdb",
              "fields": [
                {
                  "func": "mean",
                  "name": "/.size"
                }
              ],
              "fill": "null",
              "function": "mean",
              "groupBy": [
                {
                  "interval": "auto",
                  "params": [
                    "auto"
                  ],
                  "type": "time"
                }
              ],
              "hide": true,
              "measurement": "fs",
              "policy": "default",
              "query": "SELECT mean(\"/.size\") FROM \"fs\" WHERE $timeFilter GROUP BY time($interval) fill(null)",
              "refId": "B",
              "resultFormat": "time_series",
              "select": [
                [
                  {
                    "params": [
                      "/data.size"
                    ],
                    "type": "field"
                  },
                  {
                    "params": [],
                    "type": "mean"
                  }
                ]
              ],
              "series": "fs",
              "tags": [],
              "target": ""
            }
          ],
          "timeFrom": null,
          "timeShift": null,
          "title": "/ Size",
          "tooltip": {
            "msResolution": true,
            "shared": false,
            "sort": 0,
            "value_type": "cumulative"
          },
          "type": "graph",
          "xaxis": {
            "show": true
          },
          "yaxes": [
            {
              "format": "bytes",
              "logBase": 1,
              "max": null,
              "min": 0,
              "show": true
            },
            {
              "format": "short",
              "logBase": 1,
              "max": null,
              "min": null,
              "show": true
            }
          ]
        },
        {
          "cacheTimeout": null,
          "colorBackground": true,
          "colorValue": false,
          "colors": [
            "rgba(71, 212, 59, 0.4)",
            "rgba(245, 150, 40, 0.73)",
            "rgba(225, 40, 40, 0.59)"
          ],
          "datasource": "249",
          "editable": true,
          "error": false,
          "format": "percent",
          "gauge": {
            "maxValue": 100,
            "minValue": 0,
            "show": false,
            "thresholdLabels": false,
            "thresholdMarkers": true
          },
          "id": 16,
          "interval": null,
          "links": [],
          "mappingType": 1,
          "mappingTypes": [
            {
              "name": "value to text",
              "value": 1
            },
            {
              "name": "range to text",
              "value": 2
            }
          ],
          "maxDataPoints": 100,
          "nullPointMode": "connected",
          "nullText": null,
          "postfix": "",
          "postfixFontSize": "50%",
          "prefix": "",
          "prefixFontSize": "50%",
          "rangeMaps": [
            {
              "from": "null",
              "text": "N/A",
              "to": "null"
            }
          ],
          "span": 1,
          "sparkline": {
            "fillColor": "rgba(31, 118, 189, 0.18)",
            "full": false,
            "lineColor": "rgb(193, 71, 31)",
            "show": true
          },
          "targets": [
            {
              "column": "\"/.percent\"",
              "dsType": "influxdb",
              "fields": [
                {
                  "func": "mean",
                  "name": "/.percent"
                }
              ],
              "function": "mean",
              "groupBy": [
                {
                  "interval": "auto",
                  "params": [
                    "auto"
                  ],
                  "type": "time"
                }
              ],
              "measurement": "fs",
              "policy": "default",
              "query": "SELECT mean(\"/.percent\") FROM \"fs\" WHERE $timeFilter GROUP BY time($interval)",
              "refId": "A",
              "resultFormat": "time_series",
              "select": [
                [
                  {
                    "params": [
                      "/.percent"
                    ],
                    "type": "field"
                  },
                  {
                    "params": [],
                    "type": "mean"
                  }
                ]
              ],
              "series": "fs",
              "tags": []
            }
          ],
          "thresholds": "70,90",
          "title": "/ used",
          "type": "singlestat",
          "valueFontSize": "80%",
          "valueMaps": [
            {
              "op": "=",
              "text": "N/A",
              "value": "null"
            }
          ],
          "valueName": "avg"
        },
        {
          "cacheTimeout": null,
          "colorBackground": true,
          "colorValue": false,
          "colors": [
            "rgba(71, 212, 59, 0.4)",
            "rgba(245, 150, 40, 0.73)",
            "rgba(225, 40, 40, 0.59)"
          ],
          "datasource": "249",
          "editable": true,
          "error": false,
          "format": "percent",
          "gauge": {
            "maxValue": 100,
            "minValue": 0,
            "show": false,
            "thresholdLabels": false,
            "thresholdMarkers": true
          },
          "id": 17,
          "interval": null,
          "links": [],
          "mappingType": 1,
          "mappingTypes": [
            {
              "name": "value to text",
              "value": 1
            },
            {
              "name": "range to text",
              "value": 2
            }
          ],
          "maxDataPoints": 100,
          "nullPointMode": "connected",
          "nullText": null,
          "postfix": "",
          "postfixFontSize": "50%",
          "prefix": "",
          "prefixFontSize": "50%",
          "rangeMaps": [
            {
              "from": "null",
              "text": "N/A",
              "to": "null"
            }
          ],
          "span": 1,
          "sparkline": {
            "fillColor": "rgba(31, 118, 189, 0.18)",
            "full": false,
            "lineColor": "rgb(193, 71, 31)",
            "show": true
          },
          "targets": [
            {
              "column": "\"/home.percent\"",
              "dsType": "influxdb",
              "fields": [
                {
                  "func": "mean",
                  "name": "/boot/efi.percent"
                }
              ],
              "function": "mean",
              "groupBy": [
                {
                  "interval": "auto",
                  "params": [
                    "auto"
                  ],
                  "type": "time"
                }
              ],
              "measurement": "fs",
              "policy": "default",
              "query": "SELECT mean(\"/boot.percent\") FROM \"fs\" WHERE $timeFilter GROUP BY time($interval)",
              "refId": "A",
              "resultFormat": "time_series",
              "select": [
                [
                  {
                    "params": [
                      "/boot.percent"
                    ],
                    "type": "field"
                  },
                  {
                    "params": [],
                    "type": "mean"
                  }
                ]
              ],
              "series": "fs",
              "tags": []
            }
          ],
          "thresholds": "70,90",
          "title": "/boot used",
          "type": "singlestat",
          "valueFontSize": "80%",
          "valueMaps": [
            {
              "op": "=",
              "text": "N/A",
              "value": "null"
            }
          ],
          "valueName": "avg"
        },
        {
          "cacheTimeout": null,
          "colorBackground": true,
          "colorValue": false,
          "colors": [
            "rgba(71, 212, 59, 0.4)",
            "rgba(245, 150, 40, 0.73)",
            "rgba(225, 40, 40, 0.59)"
          ],
          "datasource": "249",
          "editable": true,
          "error": false,
          "format": "percent",
          "gauge": {
            "maxValue": 100,
            "minValue": 0,
            "show": false,
            "thresholdLabels": false,
            "thresholdMarkers": true
          },
          "id": 22,
          "interval": null,
          "links": [],
          "mappingType": 1,
          "mappingTypes": [
            {
              "name": "value to text",
              "value": 1
            },
            {
              "name": "range to text",
              "value": 2
            }
          ],
          "maxDataPoints": 100,
          "nullPointMode": "connected",
          "nullText": null,
          "postfix": "",
          "postfixFontSize": "50%",
          "prefix": "",
          "prefixFontSize": "50%",
          "rangeMaps": [
            {
              "from": "null",
              "text": "N/A",
              "to": "null"
            }
          ],
          "span": 1,
          "sparkline": {
            "fillColor": "rgba(31, 118, 189, 0.18)",
            "full": false,
            "lineColor": "rgb(193, 71, 31)",
            "show": true
          },
          "targets": [
            {
              "column": "\"/.percent\"",
              "dsType": "influxdb",
              "fields": [
                {
                  "func": "mean",
                  "name": "/.percent"
                }
              ],
              "function": "mean",
              "groupBy": [
                {
                  "interval": "auto",
                  "params": [
                    "auto"
                  ],
                  "type": "time"
                }
              ],
              "measurement": "fs",
              "policy": "default",
              "query": "SELECT mean(\"/.percent\") FROM \"fs\" WHERE $timeFilter GROUP BY time($interval)",
              "refId": "A",
              "resultFormat": "time_series",
              "select": [
                [
                  {
                    "params": [
                      "/data.percent"
                    ],
                    "type": "field"
                  },
                  {
                    "params": [],
                    "type": "mean"
                  }
                ]
              ],
              "series": "fs",
              "tags": []
            }
          ],
          "thresholds": "70,90",
          "title": "/data used",
          "type": "singlestat",
          "valueFontSize": "80%",
          "valueMaps": [
            {
              "op": "=",
              "text": "N/A",
              "value": "null"
            }
          ],
          "valueName": "avg"
        }
      ],
      "title": "New row"
    },
    {
      "collapse": false,
      "editable": true,
      "height": "150px",
      "panels": [],
      "title": "New row"
    }
  ],
  "time": {
    "from": "now-15m",
    "to": "now"
  },
  "timepicker": {
    "collapse": false,
    "enable": true,
    "notice": false,
    "now": true,
    "refresh_intervals": [
      "5s",
      "10s",
      "30s",
      "1m",
      "5m",
      "15m",
      "30m",
      "1h",
      "2h",
      "1d"
    ],
    "status": "Stable",
    "time_options": [
      "5m",
      "15m",
      "1h",
      "6h",
      "12h",
      "24h",
      "2d",
      "7d",
      "30d"
    ],
    "type": "timepicker"
  },
  "templating": {
    "list": []
  },
  "annotations": {
    "list": []
  },
  "refresh": "10s",
  "schemaVersion": 12,
  "version": 1,
  "links": [],
  "gnetId": null
}